{
  "log" : {
    "version" : "1.2",
    "pages" : [ ],
    "entries" : [ {
      "startedDateTime" : "2024-07-18T04:38:59.043Z",
      "request" : {
        "method" : "GET",
        "url" : "https://hospital.aut.katalon.com/api/v1/doctors",
        "httpVersion" : "",
        "cookies" : [ ],
        "headers" : [ {
          "name" : "Content-Type",
          "value" : "application/json"
        }, {
          "name" : "Authorization",
          "value" : "Bearer eyJ0eXAiOiJKV1QiLCJhbGciOiJSUzI1NiJ9.eyJ1cG4iOiJhZG1pbkBhdXQuY29tIiwiaWQiOiJjMTUzZTg2Zi1mNWZhLTRmZjEtYThhOS0xMjk3OTNkMjk3YjciLCJuYW1lIjoiQWRtaW4iLCJncm91cHMiOlsiQURNSU5fUk9MRSJdLCJpYXQiOjE3MjEyNzc1MzcsImV4cCI6MTcyMTM2MzkzNywianRpIjoiYmEzM2UxZWQtMmYzMy00YmEwLThmMzAtMGM3ZGMyMGYyNTk5IiwiaXNzIjoiaHR0cHM6Ly9oZWFsdGhjYXJlLmthdGFsb24uY29tL2lzc3VlciJ9.Q-qHZ74Gxe_8qbkEJdEpi949b8m4df2Xj5REd-0RT6eI7aP0sO4L1FoCIjp_5hs7tjJJPJv6oloxJpqwy5JW84Qa5sMGF0kMmltROmZcKPIYOmYmFMhWCLyFfYsU6ldO_zC6dwOBYXW-czUf6hxco6jaOxbF9p_YgIDQ-SalINQ2u1yF3gw7fNkD6O82MmxX3trpGkNemLIocjcMUZhl7FUqKKGLi8CS4JiBnyLsBFl3bI-K74gULjbqD5sSAEqIJ4ycYN09IDb5KsEga-5inSgFntrFd5lm0EDH1AkAPnF8h99ohb1RjGjpq1X_9iVR8YOjeoAqHqCiywhL6-ln3g"
        } ],
        "queryString" : [ ],
        "headersSize" : 0,
        "bodySize" : 0,
        "comment" : ""
      },
      "response" : {
        "status" : 200,
        "statusText" : "",
        "httpVersion" : "",
        "cookies" : [ ],
        "headers" : [ {
          "name" : "Connection",
          "value" : "keep-alive"
        }, {
          "name" : "#status#",
          "value" : "HTTP/1.1 200 OK"
        }, {
          "name" : "Content-Length",
          "value" : "6793"
        }, {
          "name" : "Date",
          "value" : "Thu, 18 Jul 2024 04:38:59 GMT"
        }, {
          "name" : "Content-Type",
          "value" : "application/json;charset=UTF-8"
        } ],
        "content" : {
          "size" : 6793,
          "mimeType" : "application/json;charset=UTF-8",
          "text" : "{\"data\":{\"doctors\":[{\"id\":\"925e2c64-46a4-4c01-8489-cc84e7c64a7b\",\"fullName\":\"Grp VFDGe\",\"email\":\"fuumtlyvr6auto@gmail.com\",\"phoneNumber\":\"+84974192001\",\"activated\":false},{\"id\":\"f78802dd-8891-4541-9041-3cf3e8f527b8\",\"fullName\":\"EcX RPQbk\",\"email\":\"q4ycjyvozwauto@gmail.com\",\"phoneNumber\":\"+84931180581\",\"address\":\"286/12 EwYAiED\",\"speciality\":{\"createdAt\":\"2024-05-28T09:33:33.939875\",\"updatedAt\":\"2024-07-16T12:46:53.282225\",\"id\":\"fb35128b-4e5c-49ab-b74e-9c47b9fe66a9\",\"name\":\"Endocrinology\",\"description\":\"\",\"activated\":false},\"degree\":\"PROFESSOR_OF_MEDICINE\",\"photoUrl\":\"https://katalon-shared-services-health-care.s3.amazonaws.com/doctor/1101511d-8379-41fa-9fc8-cf69737c6213/avatar?X-Amz-Algorithm=AWS4-HMAC-SHA256&X-Amz-Date=20240718T043859Z&X-Amz-SignedHeaders=host&X-Amz-Expires=86400&X-Amz-Credential=AKIAQBGPJ5ZCZ6J4JTNM%2F20240718%2Fus-east-1%2Fs3%2Faws4_request&X-Amz-Signature=64cfef8e4ebe34465f65277c6598a3840bc03612b5114a51252d2ae86c2efecb\",\"description\":\"NoXKPhqxrtmipnLg525kEJWmwZCZXe\",\"gender\":\"MALE\",\"birthday\":\"2020-04-16\",\"activated\":false},{\"id\":\"762a14b0-f074-4a45-8b91-7f2169f0902d\",\"fullName\":\"Hia LsGGJ\",\"email\":\"gq3u1zcjpuauto@gmail.com\",\"phoneNumber\":\"+84976414381\",\"address\":\"195/38 bMIfTkE\",\"speciality\":{\"createdAt\":\"2024-05-28T09:33:33.939875\",\"updatedAt\":\"2024-07-16T12:46:53.282225\",\"id\":\"fb35128b-4e5c-49ab-b74e-9c47b9fe66a9\",\"name\":\"Endocrinology\",\"description\":\"\",\"activated\":false},\"degree\":\"SPECIALIST_DOCTOR\",\"photoUrl\":\"https://katalon-shared-services-health-care.s3.amazonaws.com/doctor/149957a6-a384-410d-a2d5-3908f6da24a1/avatar?X-Amz-Algorithm=AWS4-HMAC-SHA256&X-Amz-Date=20240718T043859Z&X-Amz-SignedHeaders=host&X-Amz-Expires=86400&X-Amz-Credential=AKIAQBGPJ5ZCZ6J4JTNM%2F20240718%2Fus-east-1%2Fs3%2Faws4_request&X-Amz-Signature=6b40b5e36ae667afe2d4d6c30069dfa66844d890eb7fa23f78463e279a703dfc\",\"description\":\"2AZaM78abIGTudyr7TF5OJ1ZjvFqzZ\",\"gender\":\"MALE\",\"birthday\":\"2012-01-17\",\"activated\":false},{\"id\":\"04964ad1-1ea6-4780-9f50-f991104436d4\",\"fullName\":\"Xpp SrKZT\",\"email\":\"jrhv88qtzsauto@gmail.com\",\"phoneNumber\":\"+84961104916\",\"address\":\"167/57 cwVQXWR\",\"speciality\":{\"createdAt\":\"2024-05-28T09:33:33.939875\",\"updatedAt\":\"2024-07-16T12:46:53.282225\",\"id\":\"fb35128b-4e5c-49ab-b74e-9c47b9fe66a9\",\"name\":\"Endocrinology\",\"description\":\"\",\"activated\":false},\"degree\":\"MASTER_OF_MEDICINE\",\"photoUrl\":\"https://katalon-shared-services-health-care.s3.amazonaws.com/doctor/167351f4-5386-4858-9319-53c5aa13a058/avatar?X-Amz-Algorithm=AWS4-HMAC-SHA256&X-Amz-Date=20240718T043859Z&X-Amz-SignedHeaders=host&X-Amz-Expires=86400&X-Amz-Credential=AKIAQBGPJ5ZCZ6J4JTNM%2F20240718%2Fus-east-1%2Fs3%2Faws4_request&X-Amz-Signature=a314bcd5bd73ebd0cfa6a37422ef031bf37a8b551405c0c15a9788b44f2126cf\",\"description\":\"XSUhekr3MZF7KWGKqkFQSGTo8Zrywc\",\"gender\":\"MALE\",\"birthday\":\"2004-01-01\",\"activated\":true},{\"id\":\"306b44cd-3d9b-4c17-a1d8-f30f53d08b62\",\"fullName\":\"LVS NoauL\",\"email\":\"nja1mzhrajauto@gmail.com\",\"phoneNumber\":\"+84932622002\",\"address\":\"588/92 mJefHpA\",\"speciality\":{\"createdAt\":\"2024-07-17T00:38:33.935852\",\"updatedAt\":\"2024-07-17T00:48:13.866187\",\"id\":\"b3ba5d45-d635-497b-80f0-ad3cdcd07797\",\"name\":\"Obesity surgery\",\"description\":\"\",\"activated\":false},\"degree\":\"DOCTOR\",\"photoUrl\":\"https://katalon-shared-services-health-care.s3.amazonaws.com/doctor/1c6ce760-fa95-4a36-a12a-975dcce69e78/avatar?X-Amz-Algorithm=AWS4-HMAC-SHA256&X-Amz-Date=20240718T043859Z&X-Amz-SignedHeaders=host&X-Amz-Expires=86400&X-Amz-Credential=AKIAQBGPJ5ZCZ6J4JTNM%2F20240718%2Fus-east-1%2Fs3%2Faws4_request&X-Amz-Signature=b314b5edc104931cfaf3534957a8af254e70f42f05968dff5a806765a122709e\",\"description\":\"1y9NbUnbOQxFTmtKkoCm7VdCMXHTZ8\",\"gender\":\"FEMALE\",\"birthday\":\"2023-06-18\",\"activated\":true},{\"id\":\"7abf459d-e7e2-4600-8de5-88bdcee64c6f\",\"fullName\":\"NXl SPuor\",\"email\":\"8wjospzcrjauto@gmail.com\",\"phoneNumber\":\"+84917459054\",\"activated\":false},{\"id\":\"9b47e2ea-db9b-45b6-8d8d-3a88d2bcbfc6\",\"fullName\":\"ORK LqByr\",\"email\":\"wlcixxdx3eauto@gmail.com\",\"phoneNumber\":\"+84948807435\",\"activated\":true},{\"id\":\"144cf78a-ec0f-415c-b93b-c82c68e685f0\",\"fullName\":\"Nay IyNWj\",\"email\":\"crmtitvnuiauto@gmail.com\",\"phoneNumber\":\"+84991856323\",\"address\":\"786/73 SziVEvl\",\"speciality\":{\"createdAt\":\"2024-07-17T00:38:33.935852\",\"updatedAt\":\"2024-07-17T00:48:13.866187\",\"id\":\"b3ba5d45-d635-497b-80f0-ad3cdcd07797\",\"name\":\"Obesity surgery\",\"description\":\"\",\"activated\":false},\"degree\":\"DOCTOR_OF_MEDICINE\",\"photoUrl\":\"https://katalon-shared-services-health-care.s3.amazonaws.com/doctor/1fbb9c5a-34f1-4bc2-9e9a-7b9202b1851f/avatar?X-Amz-Algorithm=AWS4-HMAC-SHA256&X-Amz-Date=20240718T043859Z&X-Amz-SignedHeaders=host&X-Amz-Expires=86400&X-Amz-Credential=AKIAQBGPJ5ZCZ6J4JTNM%2F20240718%2Fus-east-1%2Fs3%2Faws4_request&X-Amz-Signature=c66413477519bc495550287f3d308f6a478cfecc2399fa5558a2f46461d968de\",\"description\":\"iQsdvcN2i6E5qomjujZdzN7WXVgJlU\",\"gender\":\"MALE\",\"birthday\":\"2010-06-22\",\"activated\":true},{\"id\":\"c4f9a558-e171-47d7-ac8f-418582243ec9\",\"fullName\":\"NIx IHrdl\",\"email\":\"pmmirbfpq2auto@gmail.com\",\"phoneNumber\":\"+84929632633\",\"address\":\"2/5 eXhKnOG\",\"speciality\":{\"createdAt\":\"2024-07-16T23:42:46.529636\",\"updatedAt\":\"2024-07-16T23:42:46.529654\",\"id\":\"9656f53d-87e6-415d-b000-1d63f2238ca2\",\"name\":\"H(a)ematology\",\"description\":\"\",\"activated\":true},\"degree\":\"MASTER_OF_MEDICINE\",\"photoUrl\":\"https://katalon-shared-services-health-care.s3.amazonaws.com/doctor/25b1b154-0c56-482a-9473-6bcb77267ca4/avatar?X-Amz-Algorithm=AWS4-HMAC-SHA256&X-Amz-Date=20240718T043859Z&X-Amz-SignedHeaders=host&X-Amz-Expires=86400&X-Amz-Credential=AKIAQBGPJ5ZCZ6J4JTNM%2F20240718%2Fus-east-1%2Fs3%2Faws4_request&X-Amz-Signature=3b5e53e131636a8e9f8e81a3742758e62ffbc29971549d0bc3255bee3bc550a9\",\"description\":\"3blbcdUJHdyIaQgl5rfzwRxvFIHPTL\",\"gender\":\"MALE\",\"birthday\":\"2021-07-17\",\"activated\":false},{\"id\":\"64f25cb7-3445-4344-aa20-081f0be1cc61\",\"fullName\":\"WEC YIrFU\",\"email\":\"man.hua+3@katalon.com\",\"phoneNumber\":\"+84970526041\",\"address\":\"290/6 DywuWMM\",\"speciality\":{\"createdAt\":\"2024-07-17T00:36:44.310097\",\"updatedAt\":\"2024-07-17T00:47:59.492329\",\"id\":\"202f5260-d560-445e-bb05-f3ab7c32c799\",\"name\":\"Gastroenterology & Hepatology\",\"description\":\"\",\"activated\":false},\"degree\":\"SPECIALIST_DOCTOR_GRADE_II\",\"photoUrl\":\"https://katalon-shared-services-health-care.s3.amazonaws.com/doctor/27cc39b7-0b66-426a-b485-8990166af20c/avatar?X-Amz-Algorithm=AWS4-HMAC-SHA256&X-Amz-Date=20240718T043859Z&X-Amz-SignedHeaders=host&X-Amz-Expires=86400&X-Amz-Credential=AKIAQBGPJ5ZCZ6J4JTNM%2F20240718%2Fus-east-1%2Fs3%2Faws4_request&X-Amz-Signature=7960621609006414bb0482b6a1b3b43b052c131385dfd575c4342ced197d6f99\",\"description\":\"kb5m7LNT75TKEG4eCAs3OxlK4OgQlt\",\"gender\":\"MALE\",\"birthday\":\"2016-06-19\",\"activated\":false}],\"pagination\":{\"currentPage\":1,\"totalPages\":7,\"totalRecords\":67}},\"message\":\"Get doctors successfully\"}",
          "comment" : ""
        },
        "redirectURL" : "",
        "headersSize" : 113,
        "bodySize" : 6793,
        "comment" : ""
      },
      "cache" : { },
      "timings" : {
        "comment" : "",
        "ssl" : -1,
        "connect" : 0,
        "blocked" : -1,
        "dns" : -1,
        "send" : 0,
        "wait" : 0,
        "receive" : 0
      },
      "comment" : "",
      "_katalonRequestInformation" : {
        "name" : "1",
        "testObjectId" : null,
        "harId" : "859e89de-ae07-4e41-a6ab-d991738f4994",
        "reportFolder" : null
      },
      "time" : 0
    } ],
    "comment" : ""
  }
}