{
  "log" : {
    "version" : "1.2",
    "pages" : [ ],
    "entries" : [ {
      "startedDateTime" : "2024-07-19T03:40:55.790Z",
      "request" : {
        "method" : "GET",
        "url" : "https://hospital.aut.katalon.com/api/v1/admin/specialists?page=1&itemPerPage=10&sortBy=ID&order=ASC",
        "httpVersion" : "",
        "cookies" : [ ],
        "headers" : [ {
          "name" : "Authorization",
          "value" : "Bearer eyJ0eXAiOiJKV1QiLCJhbGciOiJSUzI1NiJ9.eyJ1cG4iOiJhZG1pbkBhdXQuY29tIiwiaWQiOiJjMTUzZTg2Zi1mNWZhLTRmZjEtYThhOS0xMjk3OTNkMjk3YjciLCJuYW1lIjoiQWRtaW4iLCJncm91cHMiOlsiQURNSU5fUk9MRSJdLCJpYXQiOjE3MjEzNjA0NTQsImV4cCI6MTcyMTQ0Njg1NCwianRpIjoiNTcwOGU4N2QtNzhlZC00YjU5LTlmMjYtMWIzMWViMDUxODVlIiwiaXNzIjoiaHR0cHM6Ly9oZWFsdGhjYXJlLmthdGFsb24uY29tL2lzc3VlciJ9.Mi0C43DwDi8QWGVcOgAxBPmkprRbU0trTQ1nU60W4xqRQtxbhnEPwRCwVlT1Yu30dwWV11gyE8JD_pJyMfCT98L49lax3HtAmwEVamy5IDIokH6VFZY6_BBO7XRlfZ1ZClT65rBcH8bRyy_Z48RNedLZ1gPWA8T-nd4f9BquUMlf-oJL7k8B76PcV-DCIJ_-R8T22NJZjrwWw0RVyjz9WXctZ-JyPsEf9yl-YIXAEHVX4vjAGb-STBAeDjeZ65EiQQfrXPUt-mbxo0rn1XOfGjV-JdwEml8DVCsXgXR0HZa2MAeSahl9NwT69Er3u1TDkDyV-nnc0O27hdsox_DoQA"
        } ],
        "queryString" : [ {
          "name" : "page",
          "value" : "1"
        }, {
          "name" : "itemPerPage",
          "value" : "10"
        }, {
          "name" : "sortBy",
          "value" : "ID"
        }, {
          "name" : "order",
          "value" : "ASC"
        } ],
        "headersSize" : 0,
        "bodySize" : 0,
        "comment" : ""
      },
      "response" : {
        "status" : 200,
        "statusText" : "",
        "httpVersion" : "",
        "cookies" : [ ],
        "headers" : [ {
          "name" : "Connection",
          "value" : "keep-alive"
        }, {
          "name" : "#status#",
          "value" : "HTTP/1.1 200 OK"
        }, {
          "name" : "Content-Length",
          "value" : "1173"
        }, {
          "name" : "Date",
          "value" : "Fri, 19 Jul 2024 03:40:55 GMT"
        }, {
          "name" : "Content-Type",
          "value" : "application/json;charset=UTF-8"
        } ],
        "content" : {
          "size" : 1173,
          "mimeType" : "application/json;charset=UTF-8",
          "text" : "{\"items\":[{\"id\":\"06342b29-fac1-4cdb-b1b3-2a4692c2c7b8\",\"name\":\"Anaesthesiology\",\"description\":\"\",\"activated\":false},{\"id\":\"090f0c02-146c-4ffd-b665-fe2b34895c13\",\"name\":\"Dermatology\",\"description\":\"\",\"activated\":true},{\"id\":\"0ee4dbfb-0551-4046-9146-445bf38c75df\",\"name\":\"Auto speciality dDMED\",\"description\":\"\",\"activated\":false},{\"id\":\"202f5260-d560-445e-bb05-f3ab7c32c799\",\"name\":\"Gastroenterology & Hepatology\",\"description\":\"\",\"activated\":false},{\"id\":\"2b6bd56a-761e-49e1-a472-d185610375bc\",\"name\":\"Auto speciality PtAMk\",\"description\":\"\",\"activated\":false},{\"id\":\"3a2f6207-68e4-447e-b93c-30f5e22cebc1\",\"name\":\"Auto speciality kZUlg\",\"description\":\"\",\"activated\":false},{\"id\":\"3cc9aa11-b2f2-4c92-879d-74ff5a2d1117\",\"name\":\"Pediatric\",\"description\":\"\",\"activated\":true},{\"id\":\"4bf1b077-8889-4216-80bb-813eec48f252\",\"name\":\"Auto speciality RZWjT\",\"description\":\"\",\"activated\":false},{\"id\":\"4c121e5c-4040-457c-a5a5-c0e3d87d2542\",\"name\":\"Auto speciality tholS\",\"description\":\"\",\"activated\":false},{\"id\":\"4d0fa5d9-f0ed-4d96-bfaf-79e490e8d549\",\"name\":\"Auto speciality cJyqs\",\"description\":\"\",\"activated\":false}],\"pagination\":{\"currentPage\":1,\"totalPages\":3,\"totalRecords\":23}}",
          "comment" : ""
        },
        "redirectURL" : "",
        "headersSize" : 113,
        "bodySize" : 1173,
        "comment" : ""
      },
      "cache" : { },
      "timings" : {
        "comment" : "",
        "ssl" : -1,
        "connect" : 0,
        "blocked" : -1,
        "dns" : -1,
        "send" : 0,
        "wait" : 0,
        "receive" : 0
      },
      "comment" : "",
      "_katalonRequestInformation" : {
        "name" : "11",
        "testObjectId" : null,
        "harId" : "f7ff8828-4dfc-4312-864e-3b720e976cd9",
        "reportFolder" : null
      },
      "time" : 0
    } ],
    "comment" : ""
  }
}