{
  "log" : {
    "version" : "1.2",
    "pages" : [ ],
    "entries" : [ {
      "startedDateTime" : "2024-07-19T04:34:55.372Z",
      "request" : {
        "method" : "GET",
        "url" : "https://hospital.aut.katalon.com/api/v1/doctors",
        "httpVersion" : "",
        "cookies" : [ ],
        "headers" : [ {
          "name" : "Content-Type",
          "value" : "application/json"
        }, {
          "name" : "Authorization",
          "value" : "Bearer eyJ0eXAiOiJKV1QiLCJhbGciOiJSUzI1NiJ9.eyJ1cG4iOiJhZG1pbkBhdXQuY29tIiwiaWQiOiJjMTUzZTg2Zi1mNWZhLTRmZjEtYThhOS0xMjk3OTNkMjk3YjciLCJuYW1lIjoiQWRtaW4iLCJncm91cHMiOlsiQURNSU5fUk9MRSJdLCJpYXQiOjE3MjEzNjM2OTQsImV4cCI6MTcyMTQ1MDA5NCwianRpIjoiZTNhYTkwYTEtYmRkOC00ZTZjLThmODgtNTI1ZjA1NTYzNGZjIiwiaXNzIjoiaHR0cHM6Ly9oZWFsdGhjYXJlLmthdGFsb24uY29tL2lzc3VlciJ9.jbMzrGQSd-evH23OMdDv2Nzb-uWm3NyljB1jjum2Mh1lHcF4xhcRNNE8ra0CDeTbjp7Ua-orZfg2sNCUK18JFDinLT7jnp-v81VLc8FUNJEtXku039yOBrIxRmHSjKRbIDRQ7nVfT7Y4INL8d9PT_qSQAJn6OgJSphMspAmghr7MF0_hEmXNg7Q3I4afgdu86GlRuc0mxkTuWHoC6b2eNKIoXX_iLbHz_qrLPogv-u4pLmmxI-52E1EmJYh3aLgtBh21SkSPtXLYOh4Wo1vBwNqfbL95TQopUoiESV3P1asidbVhtt--TJUypTc4ChG-z7UI66w_vmYE4BYqUqEoeA"
        } ],
        "queryString" : [ ],
        "headersSize" : 0,
        "bodySize" : 0,
        "comment" : ""
      },
      "response" : {
        "status" : 200,
        "statusText" : "",
        "httpVersion" : "",
        "cookies" : [ ],
        "headers" : [ {
          "name" : "Connection",
          "value" : "keep-alive"
        }, {
          "name" : "#status#",
          "value" : "HTTP/1.1 200 OK"
        }, {
          "name" : "Content-Length",
          "value" : "7143"
        }, {
          "name" : "Date",
          "value" : "Fri, 19 Jul 2024 04:34:55 GMT"
        }, {
          "name" : "Content-Type",
          "value" : "application/json;charset=UTF-8"
        } ],
        "content" : {
          "size" : 7143,
          "mimeType" : "application/json;charset=UTF-8",
          "text" : "{\"data\":{\"doctors\":[{\"id\":\"a014f112-a214-4d3b-bcdf-4690db535631\",\"fullName\":\"PjU VUsPt\",\"email\":\"nmwgtqipkzauto@gmail.com\",\"phoneNumber\":\"+84907792882\",\"activated\":false},{\"id\":\"925e2c64-46a4-4c01-8489-cc84e7c64a7b\",\"fullName\":\"Xdk LiqqG\",\"email\":\"fuumtlyvr6auto@gmail.com\",\"phoneNumber\":\"+84904374389\",\"address\":\"322/81 rRYebSw\",\"speciality\":{\"createdAt\":\"2024-07-18T05:06:03.193988\",\"updatedAt\":\"2024-07-18T05:06:05.290453\",\"id\":\"3a2f6207-68e4-447e-b93c-30f5e22cebc1\",\"name\":\"Auto speciality kZUlg\",\"description\":\"\",\"activated\":false},\"degree\":\"MASTER_OF_MEDICINE\",\"photoUrl\":\"https://katalon-shared-services-health-care.s3.amazonaws.com/doctor/092d91e6-932a-4368-b1ea-758570453570/avatar?X-Amz-Algorithm=AWS4-HMAC-SHA256&X-Amz-Date=20240719T043455Z&X-Amz-SignedHeaders=host&X-Amz-Expires=86400&X-Amz-Credential=AKIAQBGPJ5ZCZ6J4JTNM%2F20240719%2Fus-east-1%2Fs3%2Faws4_request&X-Amz-Signature=31cee8d047647363a69cbce6bcd039171df93b42b606a454c61085dfdc2bce8a\",\"description\":\"EXKIUoPKh43PifxX9c8UrTYacDxMo0\",\"gender\":\"FEMALE\",\"birthday\":\"2022-10-19\",\"activated\":false},{\"id\":\"f78802dd-8891-4541-9041-3cf3e8f527b8\",\"fullName\":\"EcX RPQbk\",\"email\":\"q4ycjyvozwauto@gmail.com\",\"phoneNumber\":\"+84931180581\",\"address\":\"286/12 EwYAiED\",\"speciality\":{\"createdAt\":\"2024-05-28T09:33:33.939875\",\"updatedAt\":\"2024-07-16T12:46:53.282225\",\"id\":\"fb35128b-4e5c-49ab-b74e-9c47b9fe66a9\",\"name\":\"Endocrinology\",\"description\":\"\",\"activated\":false},\"degree\":\"PROFESSOR_OF_MEDICINE\",\"photoUrl\":\"https://katalon-shared-services-health-care.s3.amazonaws.com/doctor/1101511d-8379-41fa-9fc8-cf69737c6213/avatar?X-Amz-Algorithm=AWS4-HMAC-SHA256&X-Amz-Date=20240719T043455Z&X-Amz-SignedHeaders=host&X-Amz-Expires=86400&X-Amz-Credential=AKIAQBGPJ5ZCZ6J4JTNM%2F20240719%2Fus-east-1%2Fs3%2Faws4_request&X-Amz-Signature=4c796d7f202f2dd72f9d1ecb43175f46db61564a6fcfd818bfbf58b57448106d\",\"description\":\"NoXKPhqxrtmipnLg525kEJWmwZCZXe\",\"gender\":\"MALE\",\"birthday\":\"2020-04-16\",\"activated\":false},{\"id\":\"762a14b0-f074-4a45-8b91-7f2169f0902d\",\"fullName\":\"WVN MBhAv\",\"email\":\"gq3u1zcjpuauto@gmail.com\",\"phoneNumber\":\"+84903572607\",\"address\":\"111/2 UKZupeL\",\"speciality\":{\"createdAt\":\"2024-07-16T23:57:46.978397\",\"updatedAt\":\"2024-07-19T03:29:39.179844\",\"id\":\"090f0c02-146c-4ffd-b665-fe2b34895c13\",\"name\":\"Dermatology\",\"description\":\"\",\"activated\":true},\"degree\":\"ASSOCIATE_PROFESSOR_OF_MEDICINE\",\"photoUrl\":\"https://katalon-shared-services-health-care.s3.amazonaws.com/doctor/149957a6-a384-410d-a2d5-3908f6da24a1/avatar?X-Amz-Algorithm=AWS4-HMAC-SHA256&X-Amz-Date=20240719T043455Z&X-Amz-SignedHeaders=host&X-Amz-Expires=86400&X-Amz-Credential=AKIAQBGPJ5ZCZ6J4JTNM%2F20240719%2Fus-east-1%2Fs3%2Faws4_request&X-Amz-Signature=7bc4938cd788c7282572f88d70288e3c7fed9be054d72f3ba8d513123e7ddf91\",\"description\":\"CgLvEoUsXB0XYOv6oT43A5yOjiwIV2\",\"gender\":\"MALE\",\"birthday\":\"2000-04-03\",\"activated\":false},{\"id\":\"04964ad1-1ea6-4780-9f50-f991104436d4\",\"fullName\":\"Xpp SrKZT\",\"email\":\"jrhv88qtzsauto@gmail.com\",\"phoneNumber\":\"+84961104916\",\"address\":\"167/57 cwVQXWR\",\"speciality\":{\"createdAt\":\"2024-05-28T09:33:33.939875\",\"updatedAt\":\"2024-07-16T12:46:53.282225\",\"id\":\"fb35128b-4e5c-49ab-b74e-9c47b9fe66a9\",\"name\":\"Endocrinology\",\"description\":\"\",\"activated\":false},\"degree\":\"MASTER_OF_MEDICINE\",\"photoUrl\":\"https://katalon-shared-services-health-care.s3.amazonaws.com/doctor/167351f4-5386-4858-9319-53c5aa13a058/avatar?X-Amz-Algorithm=AWS4-HMAC-SHA256&X-Amz-Date=20240719T043455Z&X-Amz-SignedHeaders=host&X-Amz-Expires=86400&X-Amz-Credential=AKIAQBGPJ5ZCZ6J4JTNM%2F20240719%2Fus-east-1%2Fs3%2Faws4_request&X-Amz-Signature=13972eafe4d01ae1613f90efa6a14bf66288333e511566114ce6c5a7ec3edbdb\",\"description\":\"XSUhekr3MZF7KWGKqkFQSGTo8Zrywc\",\"gender\":\"MALE\",\"birthday\":\"2004-01-01\",\"activated\":true},{\"id\":\"31e145a5-8e80-48fb-b2b4-7c8759ad7635\",\"fullName\":\"HBg UYjIC\",\"email\":\"dxtvzwskluauto@gmail.com\",\"phoneNumber\":\"+84904963566\",\"activated\":false},{\"id\":\"306b44cd-3d9b-4c17-a1d8-f30f53d08b62\",\"fullName\":\"LVS NoauL\",\"email\":\"nja1mzhrajauto@gmail.com\",\"phoneNumber\":\"+84932622002\",\"address\":\"588/92 mJefHpA\",\"speciality\":{\"createdAt\":\"2024-07-17T00:38:33.935852\",\"updatedAt\":\"2024-07-17T00:48:13.866187\",\"id\":\"b3ba5d45-d635-497b-80f0-ad3cdcd07797\",\"name\":\"Obesity surgery\",\"description\":\"\",\"activated\":false},\"degree\":\"DOCTOR\",\"photoUrl\":\"https://katalon-shared-services-health-care.s3.amazonaws.com/doctor/1c6ce760-fa95-4a36-a12a-975dcce69e78/avatar?X-Amz-Algorithm=AWS4-HMAC-SHA256&X-Amz-Date=20240719T043455Z&X-Amz-SignedHeaders=host&X-Amz-Expires=86400&X-Amz-Credential=AKIAQBGPJ5ZCZ6J4JTNM%2F20240719%2Fus-east-1%2Fs3%2Faws4_request&X-Amz-Signature=8b42e9b707d63494e9ea015f37494b5fb9374bfb8207e0a1052e65f3d8b5b877\",\"description\":\"1y9NbUnbOQxFTmtKkoCm7VdCMXHTZ8\",\"gender\":\"FEMALE\",\"birthday\":\"2023-06-18\",\"activated\":true},{\"id\":\"7abf459d-e7e2-4600-8de5-88bdcee64c6f\",\"fullName\":\"Nsj ZXtSX\",\"email\":\"8wjospzcrjauto@gmail.com\",\"phoneNumber\":\"+84900830353\",\"address\":\"9/93 adqjdvK\",\"speciality\":{\"createdAt\":\"2024-07-17T07:44:31.636371\",\"updatedAt\":\"2024-07-18T04:32:08.483019\",\"id\":\"0ee4dbfb-0551-4046-9146-445bf38c75df\",\"name\":\"Auto speciality dDMED\",\"description\":\"\",\"activated\":false},\"degree\":\"SPECIALIST_DOCTOR\",\"photoUrl\":\"https://katalon-shared-services-health-care.s3.amazonaws.com/doctor/1c8781f1-e068-4e36-96e2-df46ae4aa148/avatar?X-Amz-Algorithm=AWS4-HMAC-SHA256&X-Amz-Date=20240719T043455Z&X-Amz-SignedHeaders=host&X-Amz-Expires=86400&X-Amz-Credential=AKIAQBGPJ5ZCZ6J4JTNM%2F20240719%2Fus-east-1%2Fs3%2Faws4_request&X-Amz-Signature=847132549a22dd9fda586fc69184d0a32247ec2db7c9aaff7b1f13ebf1d99b3a\",\"description\":\"ZQ9TglP8id0aqJH6GRFby9lLivGVsA\",\"gender\":\"FEMALE\",\"birthday\":\"2014-03-03\",\"activated\":false},{\"id\":\"9b47e2ea-db9b-45b6-8d8d-3a88d2bcbfc6\",\"fullName\":\"VTZ NFGKz\",\"email\":\"wlcixxdx3eauto@gmail.com\",\"phoneNumber\":\"+84902851156\",\"address\":\"209/82 knxiJDO\",\"speciality\":{\"createdAt\":\"2024-07-17T07:20:38.047285\",\"updatedAt\":\"2024-07-17T10:42:46.722803\",\"id\":\"5f47f254-3686-42ff-ac17-72a3e02046b9\",\"name\":\"Auto speciality rmXTX\",\"description\":\"\",\"activated\":false},\"degree\":\"DOCTOR\",\"photoUrl\":\"https://katalon-shared-services-health-care.s3.amazonaws.com/doctor/1d578b64-2a25-4763-97c3-d03312167e16/avatar?X-Amz-Algorithm=AWS4-HMAC-SHA256&X-Amz-Date=20240719T043455Z&X-Amz-SignedHeaders=host&X-Amz-Expires=86400&X-Amz-Credential=AKIAQBGPJ5ZCZ6J4JTNM%2F20240719%2Fus-east-1%2Fs3%2Faws4_request&X-Amz-Signature=fbc21a20a17630acbd535d4dabec7e97718510da3379df7330caa6eabb299e38\",\"description\":\"9QKdDJbMY0B5reC1X1o8JAJTzd7EbG\",\"gender\":\"MALE\",\"birthday\":\"2016-10-06\",\"activated\":true},{\"id\":\"993e4e4f-2f80-40c0-ae08-96c637afc063\",\"fullName\":\"Ajq CmIYY\",\"email\":\"tgq3qng8gqauto@gmail.com\",\"phoneNumber\":\"+84901271429\",\"address\":\"702/96 lUWlZRe\",\"speciality\":{\"createdAt\":\"2024-07-16T23:42:46.529636\",\"updatedAt\":\"2024-07-16T23:42:46.529654\",\"id\":\"9656f53d-87e6-415d-b000-1d63f2238ca2\",\"name\":\"H(a)ematology\",\"description\":\"\",\"activated\":true},\"degree\":\"MASTER_OF_MEDICINE\",\"description\":\"3W7cOZuQSiFIWD6sAyZ9pczzGtLZfz\",\"gender\":\"MALE\",\"birthday\":\"2024-07-09\",\"activated\":false}],\"pagination\":{\"currentPage\":1,\"totalPages\":11,\"totalRecords\":102}},\"message\":\"Get doctors successfully\"}",
          "comment" : ""
        },
        "redirectURL" : "",
        "headersSize" : 113,
        "bodySize" : 7143,
        "comment" : ""
      },
      "cache" : { },
      "timings" : {
        "comment" : "",
        "ssl" : -1,
        "blocked" : -1,
        "dns" : -1,
        "connect" : 0,
        "send" : 0,
        "wait" : 0,
        "receive" : 0
      },
      "comment" : "",
      "_katalonRequestInformation" : {
        "name" : "16",
        "testObjectId" : null,
        "harId" : "0f1b5dac-d866-4d65-a02e-dfad7bc65933",
        "reportFolder" : null
      },
      "time" : 0
    } ],
    "comment" : ""
  }
}