{
  "log" : {
    "version" : "1.2",
    "pages" : [ ],
    "entries" : [ {
      "startedDateTime" : "2024-07-18T04:31:08.058Z",
      "request" : {
        "method" : "GET",
        "url" : "https://hospital.aut.katalon.com/api/v1/admin/specialists?page=1&itemPerPage=10&sortBy=ID&order=ASC",
        "httpVersion" : "",
        "cookies" : [ ],
        "headers" : [ {
          "name" : "Authorization",
          "value" : "Bearer eyJ0eXAiOiJKV1QiLCJhbGciOiJSUzI1NiJ9.eyJ1cG4iOiJhZG1pbkBhdXQuY29tIiwiaWQiOiJjMTUzZTg2Zi1mNWZhLTRmZjEtYThhOS0xMjk3OTNkMjk3YjciLCJuYW1lIjoiQWRtaW4iLCJncm91cHMiOlsiQURNSU5fUk9MRSJdLCJpYXQiOjE3MjEyNzcwNjYsImV4cCI6MTcyMTM2MzQ2NiwianRpIjoiM2UwMzIwNDMtYjI3ZS00NDA0LThhZTEtOWU0YzM5YWYyZmI0IiwiaXNzIjoiaHR0cHM6Ly9oZWFsdGhjYXJlLmthdGFsb24uY29tL2lzc3VlciJ9.aYmcuHi-RWGN5bFiJmZYe5bd9ntFVsIdSVMAIVM6NIsnhPlh0qkh0JhT181Yol2FyAS60tCrtk4rl8Kk_tZXmr4XkrH5EgR2tiM5z_qF4wiIT4rwwHdxpZE-CB0XxP7iQunCjpO9yFtmOsb5TdPWgoQjOGpN-SA16pOblz4ZORI4Z9hAfexMoBe2Tgd9rJgxOWQtf4OCOmVUWsYUioGJXo7bKzTt8PF_3EHfROl4KmUO52L4IQu41v1nvM3QGCjB5EZD8jRNZQrIzr_pwWQ_8Z3w9KpCg_v7kEv4tzYWy9H33JP28s_1aLnadGUv4QSaNT3QYz4RcW0wmE5IJiLR9Q"
        } ],
        "queryString" : [ {
          "name" : "page",
          "value" : "1"
        }, {
          "name" : "itemPerPage",
          "value" : "10"
        }, {
          "name" : "sortBy",
          "value" : "ID"
        }, {
          "name" : "order",
          "value" : "ASC"
        } ],
        "headersSize" : 0,
        "bodySize" : 0,
        "comment" : ""
      },
      "response" : {
        "status" : 200,
        "statusText" : "",
        "httpVersion" : "",
        "cookies" : [ ],
        "headers" : [ {
          "name" : "Connection",
          "value" : "keep-alive"
        }, {
          "name" : "#status#",
          "value" : "HTTP/1.1 200 OK"
        }, {
          "name" : "Content-Length",
          "value" : "1165"
        }, {
          "name" : "Date",
          "value" : "Thu, 18 Jul 2024 04:31:08 GMT"
        }, {
          "name" : "Content-Type",
          "value" : "application/json;charset=UTF-8"
        } ],
        "content" : {
          "size" : 1165,
          "mimeType" : "application/json;charset=UTF-8",
          "text" : "{\"items\":[{\"id\":\"06342b29-fac1-4cdb-b1b3-2a4692c2c7b8\",\"name\":\"Anaesthesiology\",\"description\":\"\",\"activated\":true},{\"id\":\"090f0c02-146c-4ffd-b665-fe2b34895c13\",\"name\":\"Dermatology\",\"description\":\"\",\"activated\":false},{\"id\":\"0ee4dbfb-0551-4046-9146-445bf38c75df\",\"name\":\"Auto speciality dDMED\",\"description\":\"\",\"activated\":false},{\"id\":\"202f5260-d560-445e-bb05-f3ab7c32c799\",\"name\":\"Gastroenterology & Hepatology\",\"description\":\"\",\"activated\":false},{\"id\":\"2b6bd56a-761e-49e1-a472-d185610375bc\",\"name\":\"Auto speciality PtAMk\",\"description\":\"\",\"activated\":false},{\"id\":\"3cc9aa11-b2f2-4c92-879d-74ff5a2d1117\",\"name\":\"Pediatric\",\"description\":\"\",\"activated\":true},{\"id\":\"4bf1b077-8889-4216-80bb-813eec48f252\",\"name\":\"Auto speciality RZWjT\",\"description\":\"\",\"activated\":false},{\"id\":\"5f47f254-3686-42ff-ac17-72a3e02046b9\",\"name\":\"Auto speciality rmXTX\",\"description\":\"\",\"activated\":false},{\"id\":\"7a26c677-3925-40f4-9cf2-b241e11800a3\",\"name\":\"Auto speciality qSFxK\",\"description\":\"\",\"activated\":false},{\"id\":\"7f926e6a-8511-4a22-8408-78c07a4030da\",\"name\":\"Ophthalmology\",\"description\":\"\",\"activated\":false}],\"pagination\":{\"currentPage\":1,\"totalPages\":2,\"totalRecords\":17}}",
          "comment" : ""
        },
        "redirectURL" : "",
        "headersSize" : 113,
        "bodySize" : 1165,
        "comment" : ""
      },
      "cache" : { },
      "timings" : {
        "comment" : "",
        "ssl" : -1,
        "blocked" : -1,
        "dns" : -1,
        "connect" : 0,
        "send" : 0,
        "wait" : 0,
        "receive" : 0
      },
      "comment" : "",
      "_katalonRequestInformation" : {
        "name" : "4",
        "testObjectId" : null,
        "harId" : "6b1024b0-1710-406f-8baf-061b3b04c692",
        "reportFolder" : null
      },
      "time" : 0
    } ],
    "comment" : ""
  }
}