{
  "log" : {
    "version" : "1.2",
    "pages" : [ ],
    "entries" : [ {
      "startedDateTime" : "2024-07-18T04:31:39.059Z",
      "request" : {
        "method" : "GET",
        "url" : "https://hospital.aut.katalon.com/api/v1/admin/specialists?page=1&itemPerPage=10&sortBy=ID&order=ASC",
        "httpVersion" : "",
        "cookies" : [ ],
        "headers" : [ {
          "name" : "Authorization",
          "value" : "Bearer eyJ0eXAiOiJKV1QiLCJhbGciOiJSUzI1NiJ9.eyJ1cG4iOiJhZG1pbkBhdXQuY29tIiwiaWQiOiJjMTUzZTg2Zi1mNWZhLTRmZjEtYThhOS0xMjk3OTNkMjk3YjciLCJuYW1lIjoiQWRtaW4iLCJncm91cHMiOlsiQURNSU5fUk9MRSJdLCJpYXQiOjE3MjEyNzcwOTcsImV4cCI6MTcyMTM2MzQ5NywianRpIjoiMDYzODYxYTctOTk2ZC00YTY2LTlhMzgtNjlkN2IxODk1ZDUwIiwiaXNzIjoiaHR0cHM6Ly9oZWFsdGhjYXJlLmthdGFsb24uY29tL2lzc3VlciJ9.kMzuyaDTGEnt_A3OrGuIjaZU90ZZ9Kdlzb4YuYprTImmcTW4UFBEUQCZDv5wMq1NMsGZCIUL6dwxeuPzyQakqyMRa30KrSzoxkuSmxr0yX0-s70QFVA-G_BynqwhA0oL-AZGz-OQZBCTky6UOiPOgZnSGgEaNL89cc4xG22b2cPFhjFS-fBcEIZoZ4Xt4ZFKfSNxPkADiBkjBw4d8A76lDotv0jCUo6Fcf3goCJU7x-q-w4pKiTcnPPfFe5Uy8xikI6Li727jYgKQJoGixk3KWwkZIetSOrrknKJkrrGq8JzAyh9bSOvF39G17kkXHoMeAJcz2OMSgTWU_NIad6JLw"
        } ],
        "queryString" : [ {
          "name" : "page",
          "value" : "1"
        }, {
          "name" : "itemPerPage",
          "value" : "10"
        }, {
          "name" : "sortBy",
          "value" : "ID"
        }, {
          "name" : "order",
          "value" : "ASC"
        } ],
        "headersSize" : 0,
        "bodySize" : 0,
        "comment" : ""
      },
      "response" : {
        "status" : 200,
        "statusText" : "",
        "httpVersion" : "",
        "cookies" : [ ],
        "headers" : [ {
          "name" : "Connection",
          "value" : "keep-alive"
        }, {
          "name" : "#status#",
          "value" : "HTTP/1.1 200 OK"
        }, {
          "name" : "Content-Length",
          "value" : "1172"
        }, {
          "name" : "Date",
          "value" : "Thu, 18 Jul 2024 04:31:39 GMT"
        }, {
          "name" : "Content-Type",
          "value" : "application/json;charset=UTF-8"
        } ],
        "content" : {
          "size" : 1172,
          "mimeType" : "application/json;charset=UTF-8",
          "text" : "{\"items\":[{\"id\":\"06342b29-fac1-4cdb-b1b3-2a4692c2c7b8\",\"name\":\"Anaesthesiology\",\"description\":\"\",\"activated\":true},{\"id\":\"090f0c02-146c-4ffd-b665-fe2b34895c13\",\"name\":\"Dermatology\",\"description\":\"\",\"activated\":false},{\"id\":\"0ee4dbfb-0551-4046-9146-445bf38c75df\",\"name\":\"Auto speciality dDMED\",\"description\":\"\",\"activated\":false},{\"id\":\"202f5260-d560-445e-bb05-f3ab7c32c799\",\"name\":\"Gastroenterology & Hepatology\",\"description\":\"\",\"activated\":false},{\"id\":\"2b6bd56a-761e-49e1-a472-d185610375bc\",\"name\":\"Auto speciality PtAMk\",\"description\":\"\",\"activated\":false},{\"id\":\"3cc9aa11-b2f2-4c92-879d-74ff5a2d1117\",\"name\":\"Pediatric\",\"description\":\"\",\"activated\":true},{\"id\":\"4bf1b077-8889-4216-80bb-813eec48f252\",\"name\":\"Auto speciality RZWjT\",\"description\":\"\",\"activated\":false},{\"id\":\"4d0fa5d9-f0ed-4d96-bfaf-79e490e8d549\",\"name\":\"Auto speciality cJyqs\",\"description\":\"\",\"activated\":true},{\"id\":\"5f47f254-3686-42ff-ac17-72a3e02046b9\",\"name\":\"Auto speciality rmXTX\",\"description\":\"\",\"activated\":false},{\"id\":\"7a26c677-3925-40f4-9cf2-b241e11800a3\",\"name\":\"Auto speciality qSFxK\",\"description\":\"\",\"activated\":false}],\"pagination\":{\"currentPage\":1,\"totalPages\":2,\"totalRecords\":18}}",
          "comment" : ""
        },
        "redirectURL" : "",
        "headersSize" : 113,
        "bodySize" : 1172,
        "comment" : ""
      },
      "cache" : { },
      "timings" : {
        "comment" : "",
        "ssl" : -1,
        "blocked" : -1,
        "dns" : -1,
        "connect" : 0,
        "send" : 0,
        "wait" : 0,
        "receive" : 0
      },
      "comment" : "",
      "_katalonRequestInformation" : {
        "name" : "9",
        "testObjectId" : null,
        "harId" : "355f8f90-1905-4246-96e2-f093d410927b",
        "reportFolder" : null
      },
      "time" : 0
    } ],
    "comment" : ""
  }
}